{
  "Version": "2012-10-17",
  "Statement": [
    {
      "Sid": "VisualEditor0",
      "Effect": "Allow",
      "Action": "dynamodb:Query",
      "Resource": "arn:aws:dynamodb:ap-northeast-2:339927058960:table/tourvis_alb_error_log"
    }
  ]
}