{
  "Version": "2012-10-17",
  "Statement": [
    {
      "Sid": "VisualEditor0",
      "Effect": "Allow",
      "Action": [
        "ecr:GetRegistryPolicy",
        "ecr:CreateRepository",
        "ecr:DescribeRegistry",
        "ecr:DescribePullThroughCacheRules",
        "ecr:GetAuthorizationToken",
        "ecr:PutRegistryScanningConfiguration",
        "ecr:CreatePullThroughCacheRule",
        "ecr:DeletePullThroughCacheRule",
        "ecr:PutRegistryPolicy",
        "ecr:GetRegistryScanningConfiguration",
        "ecr:BatchImportUpstreamImage",
        "ecr:DeleteRegistryPolicy",
        "ecr:PutReplicationConfiguration"
      ],
      "Resource": "*"
    },
    {
      "Sid": "VisualEditor1",
      "Effect": "Allow",
      "Action": "ecr:*",
      "Resource": "arn:aws:ecr:ap-northeast-2:339927058960:repository/*"
    }
  ]
}